{
  "format": {
    "from": "Chatbot <chatbot@prudential.com.vn>", 
    "to": "",
    "cc": "",
    "subject": "[LG] Liên lạc với khách hàng",
    "html": "Chào bạn,<br><br>Khách hàng <b>customer_name</b> quan tâm về giải pháp <b>product_name</b> và muốn được tư vấn ngay hôm nay ngày <b>appointment_date</b> vào thời gian <b>appointment_time</b>. <br><br>Hãy nhanh chóng liên lạc với khách hàng qua số điện thoại <b>customer_phone</b> tại thời gian trên để tư vấn cho khách hàng. <br><br>Xin cảm ơn.",
    "attachments": []
  }
}
