{
  "format": {
    "from": "Chatbot <prudentialchatbot@gmail.com>",
    "to": "customer.service@prudential.com.vn,nguyen.minhtuan@prudential.com.vn,nguyen.thanhhuy@prudential.com.vn, dt.khiem@prudential.com.vn,huyen.pt@tctav.com",
    "subject": "[Chatbot] Call Center Daily Report (dd/mm/yyyy)",
    "html": "Chào bạn,<br><br>PRUBot gửi bạn báo cáo ngày dd/mm/yyyy. <br><br>Mọi thắc mắc vui lòng liên hệ Nguyen Thanh MKT Huy (CX) hoặc Nguyen Tan IT Loc (IT). <br><br>Xin cảm ơn!",
    "attachments": [
      {
        "filename": "attachment.txt",
        "content": "data"
      }
    ]
  }
}
